1 4 10
2
7 0 2 8 0 2 6 0 3 6 0 1 4 0 1 9 0 2 3 0 2 1
7 0 3 8 0 0 6 0 1 6 0 0 5 0 0 4 0 1 0 0 0 0
7
4 0 1 7 0 0 8 0 3 7 0 3 1
4 0 3 4 0 3 9 0 1 1 0 0 7
4 0 1 3 0 3 5 0 0 9 0 2 2
4 0 2 7 0 2 5 0 2 0 0 3 3
4 0 1 5 0 0 2 0 1 8 0 3 0
3 0 2 4 0 0 3 0 0 1
3 0 2 9 0 1 2 0 3 2
